{
	"Name": "United Oil Office Portable Generators",
	"Type": "Existing Customer - Upgrade",
	"Amount": 125000,
	"ExpectedRevenue": 112500,
	"StageName": "Negotiation/Review",
	"Email__c": "michaelbaven@gmail.com",
	"OrderNumber__c": 34,
	"TrackingNumber__c": 2,
	"Probability": "90",
	"LeadSource": "Web"
}